songs
…
stopwords <- read_excel('ch_stop_words.xlsx')
stop_words <- read_csv("stop_words.txt", col_names = FALSE)

tidy_male <- male_df %>%
  unnest_tokens(output = '', input = '', token = 'regex', pattern = ' ') %>%
  anti_join(stop_words, by = c('' = 'X1'))
  
freq_male <- tidy_male %>% 
  group_by() %>% 
  summarize( = n()) %>%
  arrange(desc()) %>%
  print()

## # A tibble: 100,771 x 2
##       
##    <chr> <int>
##  1     23334
##  2     13235
##  3     13138
##  4     11139
##  5      9776
##  6 i      9573
##  7      9349
##  8      9127
##  9      8531
## 10      8335
## #  with 100,761 more rows

tidy_female <- female_df %>%
  unnest_tokens(output = '', input = '', token = 'regex', pattern = ' ') %>%
  anti_join(stop_words, by = c('' = 'X1'))

freq_female <- tidy_female %>% 
  group_by() %>%
  summarize( = n()) %>%
  arrange(desc()) %>%
  print()

## # A tibble: 91,163 x 2
##       
##    <chr> <int>
##  1     20849
##  2     13241
##  3     11873
##  4     11356
##  5 i      9849
##  6      9207
##  7      8867
##  8      8638
##  9      8532
## 10      8500
## #  with 91,153 more rows
…
