songs
…
stopwords <- read_excel('ch_stop_words.xlsx')

tidy_male <- male_df %>%
  unnest_tokens(output = '', input = '', token = 'regex', pattern = ' ') %>%
  anti_join(get_stopwords(), by = c('' = 'word')) %>%
  anti_join(stopwords, by = c('' = ''))
  
freq_male <- tidy_male %>% 
  group_by() %>% 
  summarize( = n()) %>%
  arrange(desc()) %>%
  print()

## # A tibble: 99,402 x 2
##       
##    <chr> <int>
##  1      8531
##  2      8335
##  3      7496
##  4      4527
##  5    3657
##  6      3624
##  7      3246
##  8    3234
##  9 oh     3135
## 10    3066
## #  with 99,392 more rows

tidy_female <- female_df %>%
  unnest_tokens(output = '', input = '', token = 'regex', pattern = ' ') %>%
  anti_join(get_stopwords(), by = c('' = 'word')) %>%
  anti_join(stopwords, by = c('' = ''))

freq_female <- tidy_female %>% 
  group_by() %>%
  summarize( = n()) %>%
  arrange(desc()) %>%
  print()

## # A tibble: 89,816 x 2
##       
##    <chr> <int>
##  1      8867
##  2      7607
##  3      6531
##  4      4258
##  5    3656
##  6    3224
##  7      3070
##  8    3020
##  9      2957
## 10 oh     2872
## #  with 89,806 more rows
…
